…
print(pulse_data, n = 12)
```

    ## # A tibble: 4,348 x 5
    ##       id visit   age sex     bdi
    ##    <dbl> <fct> <dbl> <chr> <dbl>
    ##  1 10003 00m    48.0 male      7
    ##  2 10003 01m    48.0 male      1
    ##  3 10003 06m    48.0 male      2
    ##  4 10003 12m    48.0 male      0
    ##  5 10015 00m    72.5 male      6
    ##  6 10015 01m    72.5 male     NA
    ##  7 10015 06m    72.5 male     NA
    ##  8 10015 12m    72.5 male     NA
    ##  9 10022 00m    58.5 male     14
    ## 10 10022 01m    58.5 male      3
    ## 11 10022 06m    58.5 male      8
    ## 12 10022 12m    58.5 male     NA
    ## # … with 4,336 more rows
…
    ## file last updated:  2019-09-26 10:26:33

    ## file min/max dates: 1965-01-01 / 2019-09-30

    ## file path:          /Users/hexin/Library/Caches/rnoaa/ghcnd/USS0023B17S.dly

    ## file last updated:  2019-09-26 10:26:36

    ## file min/max dates: 1999-09-01 / 2019-09-30

``` r
weather_df
```

    ## # A tibble: 1,095 x 6
    ##    name           id          date        prcp  tmax  tmin
    ##    <chr>          <chr>       <date>     <dbl> <dbl> <dbl>
    ##  1 CentralPark_NY USW00094728 2017-01-01     0   8.9   4.4
    ##  2 CentralPark_NY USW00094728 2017-01-02    53   5     2.8
    ##  3 CentralPark_NY USW00094728 2017-01-03   147   6.1   3.9
    ##  4 CentralPark_NY USW00094728 2017-01-04     0  11.1   1.1
    ##  5 CentralPark_NY USW00094728 2017-01-05     0   1.1  -2.7
    ##  6 CentralPark_NY USW00094728 2017-01-06    13   0.6  -3.8
    ##  7 CentralPark_NY USW00094728 2017-01-07    81  -3.2  -6.6
    ##  8 CentralPark_NY USW00094728 2017-01-08     0  -3.8  -8.8
    ##  9 CentralPark_NY USW00094728 2017-01-09     0  -4.9  -9.9
    ## 10 CentralPark_NY USW00094728 2017-01-10     0   7.8  -6  
    ## # … with 1,085 more rows
…
